<?xml version="1.0" encoding="UTF-8"?>
<svg id="Templates" xmlns="http://www.w3.org/2000/svg" viewBox="0 0 501.2 363.31">
  <defs>
    <style>
      .cls-1 {
        stroke: #d32f2f;
      }

      .cls-1, .cls-2 {
        fill: none;
        stroke-linecap: round;
        stroke-miterlimit: 10;
        stroke-width: 5px;
      }

      .cls-2 {
        stroke: #000;
      }
    </style>
  </defs>
  <g id="Figure_A" data-name="Figure A">
    <g id="Figure_14" data-name="Figure 14">
      <ellipse class="cls-1" cx="442.17" cy="242.9" rx="48.53" ry="78.85"/>
      <g>
        <g>
          <rect class="cls-2" x="22.84" y="66.66" width="267.76" height="234.3"/>
          <line class="cls-2" x1="292.59" y1="66.75" x2="443.03" y2="184.26"/>
          <line class="cls-2" x1="292.26" y1="300.97" x2="443.03" y2="184.26"/>
        </g>
        <g>
          <line class="cls-2" x1="443.42" y1="185.15" x2="414.23" y2="247.77"/>
          <line class="cls-2" x1="477.17" y1="247.93" x2="443.42" y2="185.15"/>
          <line class="cls-2" x1="446.35" y1="307.77" x2="477.17" y2="247.93"/>
          <line class="cls-2" x1="414.23" y1="247.77" x2="446.35" y2="307.77"/>
        </g>
      </g>
    </g>
  </g>
</svg>