<?xml version="1.0" encoding="UTF-8"?>
<svg id="Templates" xmlns="http://www.w3.org/2000/svg" viewBox="0 0 501.2 363.31">
  <defs>
    <style>
      .cls-1 {
        stroke: #d32f2f;
      }

      .cls-1, .cls-2 {
        fill: none;
        stroke-linecap: round;
        stroke-miterlimit: 10;
        stroke-width: 5px;
      }

      .cls-2 {
        stroke: #000;
      }
    </style>
  </defs>
  <g id="Figure_A" data-name="Figure A">
    <g id="Figure_17" data-name="Figure 17">
      <g>
        <g>
          <g>
            <g>
              <line class="cls-2" x1="453.87" y1="302.8" x2="163.9" y2="302.8"/>
              <line class="cls-2" x1="274.13" y1="244.4" x2="274.13" y2="302.8"/>
              <line class="cls-2" x1="414.06" y1="272.69" x2="414.06" y2="342.61"/>
            </g>
            <g>
              <rect class="cls-2" x="49.52" y="244.4" width="110.68" height="105.82"/>
              <line class="cls-2" x1="160.15" y1="349.35" x2="49.52" y2="244.4"/>
            </g>
          </g>
          <rect class="cls-2" x="49.52" y="6.43" width="404.35" height="237.97"/>
          <line class="cls-2" x1="49.52" y1="244.4" x2="453.87" y2="6.43"/>
          <line class="cls-2" x1="49.52" y1="6.43" x2="453.87" y2="244.4"/>
        </g>
        <ellipse class="cls-1" cx="308.85" cy="294.85" rx="170.77" ry="60.9"/>
      </g>
    </g>
  </g>
</svg>