<?xml version="1.0" encoding="UTF-8"?>
<svg id="Templates" xmlns="http://www.w3.org/2000/svg" viewBox="0 0 512 384">
  <defs>
    <style>
      .cls-1 {
        stroke: #000;
        stroke-linecap: round;
        stroke-miterlimit: 10;
        stroke-width: 5px;
      }
    </style>
  </defs>
  <g id="Figure_B" data-name="Figure B">
    <g id="Figure_6" data-name="Figure 6">
      <g>
        <circle class="cls-1" cx="109.37" cy="192" r="71.05"/>
        <circle class="cls-1" cx="403.63" cy="192" r="71.05"/>
      </g>
    </g>
  </g>
</svg>